{
  "project_info": {
    "project_number": "770293342505",
    "firebase_url": "https://weborder-fab2e.firebaseio.com",
    "project_id": "weborder-fab2e",
    "storage_bucket": "weborder-fab2e.appspot.com"
  },
  "client": [
    {
      "client_info": {
        "mobilesdk_app_id": "1:770293342505:android:b4dd93175ac4d86b271738",
        "android_client_info": {
          "package_name": "com.easipos.tabletordering.table"
        }
      },
      "oauth_client": [
        {
          "client_id": "770293342505-he88tmqv7q3a83c8mka6v5b6b66j33gb.apps.googleusercontent.com",
          "client_type": 3
        }
      ],
      "api_key": [
        {
          "current_key": "AIzaSyC3SUcjTnkuP7IL9g23a7bRK2e4PCqf36k"
        }
      ],
      "services": {
        "appinvite_service": {
          "other_platform_oauth_client": [
            {
              "client_id": "770293342505-he88tmqv7q3a83c8mka6v5b6b66j33gb.apps.googleusercontent.com",
              "client_type": 3
            }
          ]
        }
      }
    },
    {
      "client_info": {
        "mobilesdk_app_id": "1:770293342505:android:5d4d1f428741179d271738",
        "android_client_info": {
          "package_name": "com.easipos.tabletordering.table.dev"
        }
      },
      "oauth_client": [
        {
          "client_id": "770293342505-he88tmqv7q3a83c8mka6v5b6b66j33gb.apps.googleusercontent.com",
          "client_type": 3
        }
      ],
      "api_key": [
        {
          "current_key": "AIzaSyC3SUcjTnkuP7IL9g23a7bRK2e4PCqf36k"
        }
      ],
      "services": {
        "appinvite_service": {
          "other_platform_oauth_client": [
            {
              "client_id": "770293342505-he88tmqv7q3a83c8mka6v5b6b66j33gb.apps.googleusercontent.com",
              "client_type": 3
            }
          ]
        }
      }
    },
    {
      "client_info": {
        "mobilesdk_app_id": "1:770293342505:android:e40ccb2fd9e06772271738",
        "android_client_info": {
          "package_name": "com.easipos.tabletordering.waiter"
        }
      },
      "oauth_client": [
        {
          "client_id": "770293342505-he88tmqv7q3a83c8mka6v5b6b66j33gb.apps.googleusercontent.com",
          "client_type": 3
        }
      ],
      "api_key": [
        {
          "current_key": "AIzaSyC3SUcjTnkuP7IL9g23a7bRK2e4PCqf36k"
        }
      ],
      "services": {
        "appinvite_service": {
          "other_platform_oauth_client": [
            {
              "client_id": "770293342505-he88tmqv7q3a83c8mka6v5b6b66j33gb.apps.googleusercontent.com",
              "client_type": 3
            }
          ]
        }
      }
    },
    {
      "client_info": {
        "mobilesdk_app_id": "1:770293342505:android:d1b0173e3d28b0dc271738",
        "android_client_info": {
          "package_name": "com.easipos.tabletordering.waiter.btk"
        }
      },
      "oauth_client": [
        {
          "client_id": "770293342505-he88tmqv7q3a83c8mka6v5b6b66j33gb.apps.googleusercontent.com",
          "client_type": 3
        }
      ],
      "api_key": [
        {
          "current_key": "AIzaSyC3SUcjTnkuP7IL9g23a7bRK2e4PCqf36k"
        }
      ],
      "services": {
        "appinvite_service": {
          "other_platform_oauth_client": [
            {
              "client_id": "770293342505-he88tmqv7q3a83c8mka6v5b6b66j33gb.apps.googleusercontent.com",
              "client_type": 3
            }
          ]
        }
      }
    },
    {
      "client_info": {
        "mobilesdk_app_id": "1:770293342505:android:25f9da8ce747809f271738",
        "android_client_info": {
          "package_name": "com.easipos.tabletordering.waiter.btk.dev"
        }
      },
      "oauth_client": [
        {
          "client_id": "770293342505-he88tmqv7q3a83c8mka6v5b6b66j33gb.apps.googleusercontent.com",
          "client_type": 3
        }
      ],
      "api_key": [
        {
          "current_key": "AIzaSyC3SUcjTnkuP7IL9g23a7bRK2e4PCqf36k"
        }
      ],
      "services": {
        "appinvite_service": {
          "other_platform_oauth_client": [
            {
              "client_id": "770293342505-he88tmqv7q3a83c8mka6v5b6b66j33gb.apps.googleusercontent.com",
              "client_type": 3
            }
          ]
        }
      }
    },
    {
      "client_info": {
        "mobilesdk_app_id": "1:770293342505:android:bb1a6be2b4db418f271738",
        "android_client_info": {
          "package_name": "com.easipos.tabletordering.waiter.dev"
        }
      },
      "oauth_client": [
        {
          "client_id": "770293342505-he88tmqv7q3a83c8mka6v5b6b66j33gb.apps.googleusercontent.com",
          "client_type": 3
        }
      ],
      "api_key": [
        {
          "current_key": "AIzaSyC3SUcjTnkuP7IL9g23a7bRK2e4PCqf36k"
        }
      ],
      "services": {
        "appinvite_service": {
          "other_platform_oauth_client": [
            {
              "client_id": "770293342505-he88tmqv7q3a83c8mka6v5b6b66j33gb.apps.googleusercontent.com",
              "client_type": 3
            }
          ]
        }
      }
    },
    {
      "client_info": {
        "mobilesdk_app_id": "1:770293342505:android:6096dfe2efac46eb271738",
        "android_client_info": {
          "package_name": "com.easipos.tabletordering.waiter.dss"
        }
      },
      "oauth_client": [
        {
          "client_id": "770293342505-he88tmqv7q3a83c8mka6v5b6b66j33gb.apps.googleusercontent.com",
          "client_type": 3
        }
      ],
      "api_key": [
        {
          "current_key": "AIzaSyC3SUcjTnkuP7IL9g23a7bRK2e4PCqf36k"
        }
      ],
      "services": {
        "appinvite_service": {
          "other_platform_oauth_client": [
            {
              "client_id": "770293342505-he88tmqv7q3a83c8mka6v5b6b66j33gb.apps.googleusercontent.com",
              "client_type": 3
            }
          ]
        }
      }
    },
    {
      "client_info": {
        "mobilesdk_app_id": "1:770293342505:android:a7df5ee71d7b23a0271738",
        "android_client_info": {
          "package_name": "com.easipos.tabletordering.waiter.dss.dev"
        }
      },
      "oauth_client": [
        {
          "client_id": "770293342505-he88tmqv7q3a83c8mka6v5b6b66j33gb.apps.googleusercontent.com",
          "client_type": 3
        }
      ],
      "api_key": [
        {
          "current_key": "AIzaSyC3SUcjTnkuP7IL9g23a7bRK2e4PCqf36k"
        }
      ],
      "services": {
        "appinvite_service": {
          "other_platform_oauth_client": [
            {
              "client_id": "770293342505-he88tmqv7q3a83c8mka6v5b6b66j33gb.apps.googleusercontent.com",
              "client_type": 3
            }
          ]
        }
      }
    },
    {
      "client_info": {
        "mobilesdk_app_id": "1:770293342505:android:8502c6ca58495a71271738",
        "android_client_info": {
          "package_name": "com.easipos.weborder"
        }
      },
      "oauth_client": [
        {
          "client_id": "770293342505-he88tmqv7q3a83c8mka6v5b6b66j33gb.apps.googleusercontent.com",
          "client_type": 3
        }
      ],
      "api_key": [
        {
          "current_key": "AIzaSyC3SUcjTnkuP7IL9g23a7bRK2e4PCqf36k"
        }
      ],
      "services": {
        "appinvite_service": {
          "other_platform_oauth_client": [
            {
              "client_id": "770293342505-he88tmqv7q3a83c8mka6v5b6b66j33gb.apps.googleusercontent.com",
              "client_type": 3
            }
          ]
        }
      }
    },
    {
      "client_info": {
        "mobilesdk_app_id": "1:770293342505:android:1e0468955304e625271738",
        "android_client_info": {
          "package_name": "com.easipos.weborder.demo"
        }
      },
      "oauth_client": [
        {
          "client_id": "770293342505-he88tmqv7q3a83c8mka6v5b6b66j33gb.apps.googleusercontent.com",
          "client_type": 3
        }
      ],
      "api_key": [
        {
          "current_key": "AIzaSyC3SUcjTnkuP7IL9g23a7bRK2e4PCqf36k"
        }
      ],
      "services": {
        "appinvite_service": {
          "other_platform_oauth_client": [
            {
              "client_id": "770293342505-he88tmqv7q3a83c8mka6v5b6b66j33gb.apps.googleusercontent.com",
              "client_type": 3
            }
          ]
        }
      }
    }
  ],
  "configuration_version": "1"
}